"","Matimba LWL","Matimba Target","Matimba UWL","Lethabo LWL","Lethabo Target","Lethabo UWL","Duvha LWL","Duvha Target","Duvha UWL","Hendrina LWL","Hendrina Target","Hendrina UWL","Matla LWL","Matla Target","Matla UWL","Kriel 1_3 LWL","Kriel 1_3 Target","Kriel 1_3 UWL","Kriel 4_6 LWL","Kriel 4_6 Target","Kriel 4_6 UWL","Kendal LWL","Kendal Target","Kendal UWL","Majuba LWL","Majuba Target","Majuba UWL","Tutuka LWL","Tutuka Target","Tutuka UWL","Camden LWL","Camden Target","Camden UWL","Arnot LWL","Arnot Target","Arnot UWL","Komati LWL","Komati Target","Komati UWL","Grootvlei LWL","Grootvlei Target","Grootvlei UWL","f1","f2"
"1",13191849483317036,13191849483450318,24225971790858760,407036,40264569,976012176319915904,63966749,255658913258892128,255658913308337824,104323695,1315907317,1315908143,-2.89494989139942e+112,-2.89494989139942e+112,-2.89494989139942e+112,1.75480030078758e+68,1.75480030078758e+68,1.75480030078758e+68,6615,4267449377301476864,4267449377301479936,1169,19498913,46886730,9.99427115392092e+32,9.99427115392092e+32,9.99427115392092e+32,13564631,4227770342284,4227866741371,796142966,796145447,804844201,29214730424840576,29214730424843568,29214732197651824,1866577580,1866715998,1878269137,140136964,140387147,1668967755,-5.29520015852475e+113,0
"2",13191849483317036,13191849483450318,24225971790858760,407036,40264569,976012176319915904,63966749,255658913258892128,255658913308337824,104323695,1315907317,1315908143,4.70973849812225e+56,4.70973849812225e+56,4.70973849812225e+56,-2.1777952454945e+135,-2.1777952454945e+135,-2.1777952454945e+135,6615,4267449377301476864,4267449377301479936,1169,19498913,46886730,9.99427115392092e+32,9.99427115392092e+32,9.99427115392092e+32,13564631,4227770342284,4227866741371,796142966,796145447,804844201,29214730424840576,29214730424843568,29214732197651824,1866577580,1866715998,1878269137,140136964,140387147,1668967755,-1.74834415854206e+136,991.341503500938
