,,01-Apr-16,02-Apr-16,03-Apr-16,04-Apr-16,05-Apr-16,06-Apr-16,07-Apr-16,08-Apr-16,09-Apr-16,10-Apr-16,11-Apr-16,12-Apr-16,13-Apr-16,14-Apr-16,15-Apr-16,16-Apr-16,17-Apr-16,18-Apr-16,19-Apr-16,20-Apr-16,21-Apr-16,22-Apr-16,23-Apr-16,24-Apr-16,25-Apr-16,26-Apr-16,27-Apr-16,28-Apr-16,29-Apr-16,30-Apr-16,01-May-16,02-May-16,03-May-16,04-May-16,05-May-16,06-May-16,07-May-16,08-May-16,09-May-16,10-May-16,11-May-16,12-May-16,13-May-16,14-May-16,15-May-16,16-May-16,17-May-16,18-May-16,19-May-16,20-May-16,21-May-16,22-May-16,23-May-16,24-May-16,25-May-16,26-May-16,27-May-16,28-May-16,29-May-16,30-May-16,31-May-16,01-Jun-16,02-Jun-16,03-Jun-16,04-Jun-16,05-Jun-16,06-Jun-16,07-Jun-16,08-Jun-16,09-Jun-16,10-Jun-16,11-Jun-16,12-Jun-16,13-Jun-16,14-Jun-16,15-Jun-16,16-Jun-16,17-Jun-16,18-Jun-16,19-Jun-16,20-Jun-16,21-Jun-16,22-Jun-16,23-Jun-16,24-Jun-16,25-Jun-16,26-Jun-16,27-Jun-16,28-Jun-16,29-Jun-16,30-Jun-16,01-Jul-16,02-Jul-16,03-Jul-16,04-Jul-16,05-Jul-16,06-Jul-16,07-Jul-16,08-Jul-16,09-Jul-16,10-Jul-16,11-Jul-16,12-Jul-16,13-Jul-16,14-Jul-16,15-Jul-16,16-Jul-16,17-Jul-16,18-Jul-16,19-Jul-16,20-Jul-16,21-Jul-16,22-Jul-16,23-Jul-16,24-Jul-16,25-Jul-16,26-Jul-16,27-Jul-16,28-Jul-16,29-Jul-16,30-Jul-16,31-Jul-16,01-Aug-16,02-Aug-16,03-Aug-16,04-Aug-16,05-Aug-16,06-Aug-16,07-Aug-16,08-Aug-16,09-Aug-16,10-Aug-16,11-Aug-16,12-Aug-16,13-Aug-16,14-Aug-16,15-Aug-16,16-Aug-16,17-Aug-16,18-Aug-16,19-Aug-16,20-Aug-16,21-Aug-16,22-Aug-16,23-Aug-16,24-Aug-16,25-Aug-16,26-Aug-16,27-Aug-16,28-Aug-16,29-Aug-16,30-Aug-16,31-Aug-16,01-Sep-16,02-Sep-16,03-Sep-16,04-Sep-16,05-Sep-16,06-Sep-16,07-Sep-16,08-Sep-16,09-Sep-16,10-Sep-16,11-Sep-16,12-Sep-16,13-Sep-16,14-Sep-16,15-Sep-16,16-Sep-16,17-Sep-16,18-Sep-16,19-Sep-16,20-Sep-16,21-Sep-16,22-Sep-16,23-Sep-16,24-Sep-16,25-Sep-16,26-Sep-16,27-Sep-16,28-Sep-16,29-Sep-16,30-Sep-16,01-Oct-16,02-Oct-16,03-Oct-16,04-Oct-16,05-Oct-16,06-Oct-16,07-Oct-16,08-Oct-16,09-Oct-16,10-Oct-16,11-Oct-16,12-Oct-16,13-Oct-16,14-Oct-16,15-Oct-16,16-Oct-16,17-Oct-16,18-Oct-16,19-Oct-16,20-Oct-16,21-Oct-16,22-Oct-16,23-Oct-16,24-Oct-16,25-Oct-16,26-Oct-16,27-Oct-16,28-Oct-16,29-Oct-16,30-Oct-16,31-Oct-16,01-Nov-16,02-Nov-16,03-Nov-16,04-Nov-16,05-Nov-16,06-Nov-16,07-Nov-16,08-Nov-16,09-Nov-16,10-Nov-16,11-Nov-16,12-Nov-16,13-Nov-16,14-Nov-16,15-Nov-16,16-Nov-16,17-Nov-16,18-Nov-16,19-Nov-16,20-Nov-16,21-Nov-16,22-Nov-16,23-Nov-16,24-Nov-16,25-Nov-16,26-Nov-16,27-Nov-16,28-Nov-16,29-Nov-16,30-Nov-16,01-Dec-16,02-Dec-16,03-Dec-16,04-Dec-16,05-Dec-16,06-Dec-16,07-Dec-16,08-Dec-16,09-Dec-16,10-Dec-16,11-Dec-16,12-Dec-16,13-Dec-16,14-Dec-16,15-Dec-16,16-Dec-16,17-Dec-16,18-Dec-16,19-Dec-16,20-Dec-16,21-Dec-16,22-Dec-16,23-Dec-16,24-Dec-16,25-Dec-16,26-Dec-16,27-Dec-16,28-Dec-16,29-Dec-16,30-Dec-16,31-Dec-16,01-Jan-17,02-Jan-17,03-Jan-17,04-Jan-17,05-Jan-17,06-Jan-17,07-Jan-17,08-Jan-17,09-Jan-17,10-Jan-17,11-Jan-17,12-Jan-17,13-Jan-17,14-Jan-17,15-Jan-17,16-Jan-17,17-Jan-17,18-Jan-17,19-Jan-17,20-Jan-17,21-Jan-17,22-Jan-17,23-Jan-17,24-Jan-17,25-Jan-17,26-Jan-17,27-Jan-17,28-Jan-17,29-Jan-17,30-Jan-17,31-Jan-17,01-Feb-17,02-Feb-17,03-Feb-17,04-Feb-17,05-Feb-17,06-Feb-17,07-Feb-17,08-Feb-17,09-Feb-17,10-Feb-17,11-Feb-17,12-Feb-17,13-Feb-17,14-Feb-17,15-Feb-17,16-Feb-17,17-Feb-17,18-Feb-17,19-Feb-17,20-Feb-17,21-Feb-17,22-Feb-17,23-Feb-17,24-Feb-17,25-Feb-17,26-Feb-17,27-Feb-17,28-Feb-17,01-Mar-17,02-Mar-17,03-Mar-17,04-Mar-17,05-Mar-17,06-Mar-17,07-Mar-17,08-Mar-17,09-Mar-17,10-Mar-17,11-Mar-17,12-Mar-17,13-Mar-17,14-Mar-17,15-Mar-17,16-Mar-17,17-Mar-17,18-Mar-17,19-Mar-17,20-Mar-17,21-Mar-17,22-Mar-17,23-Mar-17,24-Mar-17,25-Mar-17,26-Mar-17,27-Mar-17,28-Mar-17,29-Mar-17,30-Mar-17,31-Mar-17
,CBASSA,0,0,0,0,0,0,0,0,0,0,0,0,0,0,0,0,0,0,0,0,0,0,0,0,0,0,0,0,0,0,0,0,0,0,0,0,0,0,0,0,0,0,0,0,0,0,0,0,0,0,0,0,0,0,0,0,0,0,0,0,0,0,0,0,0,0,0,0,0,0,0,0,0,0,0,0,0,0,0,0,0,0,0,0,0,0,0,0,0,0,0,0,0,0,0,0,0,0,0,0,0,0,0,0,0,0,0,0,0,0,0,0,0,0,0,0,0,0,0,0,0,0,0,0,0,0,0,0,0,0,0,0,0,0,0,0,0,0,0,0,0,0,0,0,0,0,0,0,0,0,0,0,0,0,0,0,0,0,0,0,0,0,0,0,0,0,0,0,0,0,0,0,0,0,0,0,0,0,0,0,0,0,0,0,0,0,0,0,0,0,0,0,0,0,0,0,0,0,0,0,0,0,0,0,0,0,0,0,0,0,0,0,0,0,0,0,0,0,0,0,0,0,0,0,0,0,0,0,0,0,0,0,0,0,0,0,0,0,0,0,0,0,0,0,0,0,0,0,0,0,0,0,0,0,0,0,0,0,0,0,0,0,0,0,0,0,0,0,0,0,0,0,0,0,0,0,0,0,0,0,0,0,0,0,0,0,0,0,0,0,0,0,0,0,0,0,0,0,0,0,0,0,0,0,0,0,0,0,0,0,0,0,0,0,0,0,0,0,0,0,0,0,0,0,0,0,0,0,0,0,0,0,0,0,0,0,0,0,0,0,0,0,0,0,0,0,0,0,0,0,0,0,0,0,0,0,0,0,0,0,0,0,0,0,0
,IPPS,0,0,0,0,0,0,0,0,0,0,0,0,0,0,0,0,0,0,0,0,0,0,0,0,0,0,0,0,0,0,0,0,0,0,0,0,0,0,0,0,0,0,0,0,0,0,0,0,0,0,0,0,0,0,0,0,0,0,0,0,0,0,0,0,0,0,0,0,0,0,0,0,0,0,0,0,0,0,0,0,0,0,0,0,0,0,0,0,0,0,0,0,0,0,0,0,0,0,0,0,0,0,0,0,0,0,0,0,0,0,0,0,0,0,0,0,0,0,0,0,0,0,0,0,0,0,0,0,0,0,0,0,0,0,0,0,0,0,0,0,0,0,0,0,0,0,0,0,0,0,0,0,0,0,0,0,0,0,0,0,0,0,0,0,0,0,0,0,0,0,0,0,0,0,0,0,0,0,0,0,0,0,0,0,0,0,0,0,0,0,0,0,0,0,0,0,0,0,0,0,0,0,0,0,0,0,0,0,0,0,0,0,0,0,0,0,0,0,0,0,0,0,0,0,0,0,0,0,0,0,0,0,0,0,0,0,0,0,0,0,0,0,0,0,0,0,0,0,0,0,0,0,0,0,0,0,0,0,0,0,0,0,0,0,0,0,0,0,0,0,0,0,0,0,0,0,0,0,0,0,0,0,0,0,0,0,0,0,0,0,0,0,0,0,0,0,0,0,0,0,0,0,0,0,0,0,0,0,0,0,0,0,0,0,0,0,0,0,0,0,0,0,0,0,0,0,0,0,0,0,0,0,0,0,0,0,0,0,0,0,0,0,0,0,0,0,0,0,0,0,0,0,0,0,0,0,0,0,0,0,0,0,0,0,0
,Koeberg,0,0,0,0,0,0,0,0,0,0,0,0,0,0,0,0,0,0,0,0,0,0,0,0,0,0,0,0,0,0,0,0,0,0,0,0,0,0,0,0,0,0,0,0,0,0,0,0,0,0,0,0,0,0,0,0,0,0,0,0,0,0,0,0,0,0,0,0,0,0,0,0,0,0,0,0,0,0,0,0,0,0,0,0,0,0,0,0,0,0,0,0,0,0,0,0,0,0,0,0,0,0,0,0,0,0,0,0,0,0,0,0,0,0,0,0,0,0,0,0,0,0,0,0,0,0,0,0,0,0,0,0,0,0,0,0,0,0,0,0,0,0,0,0,0,0,0,0,0,0,0,0,0,0,0,0,0,0,0,0,0,0,0,0,0,0,0,0,0,0,0,0,0,0,0,0,0,0,0,0,0,0,0,0,0,0,0,0,0,0,0,0,0,0,0,0,0,0,0,0,0,0,0,0,0,0,0,0,0,0,0,0,0,0,0,0,0,0,0,0,0,0,0,0,0,0,0,0,0,0,0,0,0,0,0,0,0,0,0,0,0,0,0,0,0,0,0,0,0,0,0,0,0,0,0,0,0,0,0,0,0,0,0,0,0,0,0,0,0,0,0,0,0,0,0,0,0,0,0,0,0,0,0,0,0,0,0,0,0,0,0,0,0,0,0,0,0,0,0,0,0,0,0,0,0,0,0,0,0,0,0,0,0,0,0,0,0,0,0,0,0,0,0,0,0,0,0,0,0,0,0,0,0,0,0,0,0,0,0,0,0,0,0,0,0,0,0,0,0,0,0,0,0,0,0,0,0,0,0,0,0,0,0,0,0
A,Matimba,0,0,0,0,0,0,0,0,0,0,0,0,0,0,0,0,0,0,0,0,0,0,0,0,0,0,0,0,0,0,0,0,0,0,0,0,0,0,0,0,0,0,0,0,0,0,0,0,0,0,0,0,0,0,0,0,0,0,0,0,0,0,0,0,0,0,0,0,0,0,0,0,0,0,0,0,0,0,0,0,0,0,0,0,0,0,0,0,0,0,0,0,0,0,0,0,0,0,0,0,0,0,0,0,0,0,0,0,0,0,0,0,0,0,0,0,0,0,0,0,0,0,13.9,13.9,13.9,13.9,13.9,13.9,13.9,13.9,13.9,13.9,13.9,13.9,13.9,13.9,13.9,13.9,13.9,13.9,13.9,13.9,13.9,13.9,13.9,13.9,13.9,13.9,13.9,13.9,13.9,13.9,13.9,7.11,7.11,7.11,7.11,7.11,7.11,7.11,7.11,7.11,7.11,7.11,7.11,7.11,7.11,7.11,7.11,7.11,7.11,7.11,7.11,7.11,7.11,7.11,7.11,7.11,7.11,7.11,7.11,7.11,7.11,8.74,8.74,8.74,8.74,8.74,8.74,8.74,8.74,8.74,8.74,8.74,8.74,8.74,8.74,8.74,8.74,8.74,8.74,8.74,8.74,8.74,8.74,8.74,8.74,8.74,8.74,8.74,8.74,8.74,8.74,8.74,9.44,9.44,9.44,9.44,9.44,9.44,9.44,9.44,9.44,9.44,9.44,9.44,9.44,9.44,9.44,9.44,9.44,9.44,9.44,9.44,9.44,9.44,9.44,9.44,9.44,9.44,9.44,9.44,9.44,9.44,23.67,23.67,23.67,23.67,23.67,23.67,23.67,23.67,23.67,23.67,23.67,23.67,23.67,23.67,23.67,23.67,23.67,23.67,23.67,23.67,23.67,23.67,23.67,23.67,23.67,23.67,23.67,23.67,23.67,23.67,23.67,15.99,15.99,15.99,15.99,15.99,15.99,15.99,15.99,15.99,15.99,15.99,15.99,15.99,15.99,15.99,15.99,15.99,15.99,15.99,15.99,15.99,15.99,15.99,15.99,15.99,15.99,15.99,15.99,15.99,15.99,15.99,12.52,12.52,12.52,12.52,12.52,12.52,12.52,12.52,12.52,12.52,12.52,12.52,12.52,12.52,12.52,12.52,12.52,12.52,12.52,12.52,12.52,12.52,12.52,12.52,12.52,12.52,12.52,12.52,14.98,14.98,14.98,14.98,14.98,14.98,14.98,14.98,14.98,14.98,14.98,14.98,14.98,14.98,14.98,14.98,14.98,14.98,14.98,14.98,14.98,14.98,14.98,14.98,14.98,14.98,14.98,14.98,14.98,14.98,14.98
n.a.,Medupi,0,0,0,0,0,0,0,0,0,0,0,0,0,0,0,0,0,0,0,0,0,0,0,0,0,0,0,0,0,0,0,0,0,0,0,0,0,0,0,0,0,0,0,0,0,0,0,0,0,0,0,0,0,0,0,0,0,0,0,0,0,0,0,0,0,0,0,0,0,0,0,0,0,0,0,0,0,0,0,0,0,0,0,0,0,0,0,0,0,0,0,0,0,0,0,0,0,0,0,0,0,0,0,0,0,0,0,0,0,0,0,0,0,0,0,0,0,0,0,0,0,0,0,0,0,0,0,0,0,0,0,0,0,0,0,0,0,0,0,0,0,0,0,0,0,0,0,0,0,0,0,0,0,0,0,0,0,0,0,0,0,0,0,0,0,0,0,0,0,0,0,0,0,0,0,0,0,0,0,0,0,0,0,0,0,0,0,0,0,0,0,0,0,0,0,0,0,0,0,0,0,0,0,0,0,0,0,0,0,0,0,0,0,0,46.53508772,46.53508772,46.53508772,46.53508772,46.53508772,46.53508772,46.53508772,46.53508772,46.53508772,46.53508772,46.53508772,46.53508772,46.53508772,46.53508772,46.53508772,46.53508772,46.53508772,46.53508772,46.53508772,46.53508772,46.53508772,46.53508772,46.53508772,46.53508772,46.53508772,46.53508772,46.53508772,46.53508772,46.53508772,46.53508772,67.55428469,67.55428469,67.55428469,67.55428469,67.55428469,67.55428469,67.55428469,67.55428469,67.55428469,67.55428469,67.55428469,67.55428469,67.55428469,67.55428469,67.55428469,67.55428469,67.55428469,67.55428469,67.55428469,67.55428469,67.55428469,67.55428469,67.55428469,67.55428469,67.55428469,67.55428469,67.55428469,67.55428469,67.55428469,67.55428469,67.55428469,67.55205076,67.55205076,67.55205076,67.55205076,67.55205076,67.55205076,67.55205076,67.55205076,67.55205076,67.55205076,67.55205076,67.55205076,67.55205076,67.55205076,67.55205076,67.55205076,67.55205076,67.55205076,67.55205076,67.55205076,67.55205076,67.55205076,67.55205076,67.55205076,67.55205076,67.55205076,67.55205076,67.55205076,67.55205076,67.55205076,67.55205076,0,0,0,0,0,0,0,0,0,0,0,0,0,0,0,0,0,0,0,0,0,0,0,0,0,0,0,0,0,0,0,0,0,0,0,0,0,0,0,0,0,0,0,0,0,0,0,0,0,0,0,0,0,0,0,0,0,0,0
B,Lethabo,3.22,3.22,3.22,3.22,3.22,3.22,3.22,3.22,3.22,3.22,3.22,3.22,3.22,3.22,3.22,3.22,3.22,3.22,3.22,3.22,3.22,3.22,3.22,3.22,3.22,3.22,3.22,3.22,3.22,3.22,0,0,0,0,0,0,0,0,0,0,0,0,0,0,0,0,0,0,0,0,0,0,0,0,0,0,0,0,0,0,0,0,0,0,0,0,0,0,0,0,0,0,0,0,0,0,0,0,0,0,0,0,0,0,0,0,0,0,0,0,0,34.33,34.33,34.33,34.33,34.33,34.33,34.33,34.33,34.33,34.33,34.33,34.33,34.33,34.33,34.33,34.33,34.33,34.33,34.33,34.33,34.33,34.33,34.33,34.33,34.33,34.33,34.33,34.33,34.33,34.33,34.33,23.58,23.58,23.58,23.58,23.58,23.58,23.58,23.58,23.58,23.58,23.58,23.58,23.58,23.58,23.58,23.58,23.58,23.58,23.58,23.58,23.58,23.58,23.58,23.58,23.58,23.58,23.58,23.58,23.58,23.58,23.58,8.78,8.78,8.78,8.78,8.78,8.78,8.78,8.78,8.78,8.78,8.78,8.78,8.78,8.78,8.78,8.78,8.78,8.78,8.78,8.78,8.78,8.78,8.78,8.78,8.78,8.78,8.78,8.78,8.78,8.78,33.47,33.47,33.47,33.47,33.47,33.47,33.47,33.47,33.47,33.47,33.47,33.47,33.47,33.47,33.47,33.47,33.47,33.47,33.47,33.47,33.47,33.47,33.47,33.47,33.47,33.47,33.47,33.47,33.47,33.47,33.47,48.89,48.89,48.89,48.89,48.89,48.89,48.89,48.89,48.89,48.89,48.89,48.89,48.89,48.89,48.89,48.89,48.89,48.89,48.89,48.89,48.89,48.89,48.89,48.89,48.89,48.89,48.89,48.89,48.89,48.89,40.41916778,40.41916778,40.41916778,40.41916778,40.41916778,40.41916778,40.41916778,40.41916778,40.41916778,40.41916778,40.41916778,40.41916778,40.41916778,40.41916778,40.41916778,40.41916778,40.41916778,40.41916778,40.41916778,40.41916778,40.41916778,40.41916778,40.41916778,40.41916778,40.41916778,40.41916778,40.41916778,40.41916778,40.41916778,40.41916778,40.41916778,8,8,8,8,8,8,8,8,8,8,8,8,8,8,8,8,8,8,8,8,8,8,8,8,8,8,8,8,8,8,8,2,2,2,2,2,2,2,2,2,2,2,2,2,2,2,2,2,2,2,2,2,2,2,2,2,2,2,2,0,0,0,0,0,0,0,0,0,0,0,0,0,0,0,0,0,0,0,0,0,0,0,0,0,0,0,0,0,0,0
C,Duvha,0,0,0,0,0,0,0,0,0,0,0,0,0,0,0,0,0,0,0,0,0,0,0,0,0,0,0,0,0,0,0,0,0,0,0,0,0,0,0,0,0,0,0,0,0,0,0,0,0,0,0,0,0,0,0,0,0,0,0,0,0,0,0,0,0,0,0,0,0,0,0,0,0,0,0,0,0,0,0,0,0,0,0,0,0,0,0,0,0,0,0,1.54,1.54,1.54,1.54,1.54,1.54,1.54,1.54,1.54,1.54,1.54,1.54,1.54,1.54,1.54,1.54,1.54,1.54,1.54,1.54,1.54,1.54,1.54,1.54,1.54,1.54,1.54,1.54,1.54,1.54,1.54,0,0,0,0,0,0,0,0,0,0,0,0,0,0,0,0,0,0,0,0,0,0,0,0,0,0,0,0,0,0,0,0,0,0,0,0,0,0,0,0,0,0,0,0,0,0,0,0,0,0,0,0,0,0,0,0,0,0,0,0,0,3.15,3.15,3.15,3.15,3.15,3.15,3.15,3.15,3.15,3.15,3.15,3.15,3.15,3.15,3.15,3.15,3.15,3.15,3.15,3.15,3.15,3.15,3.15,3.15,3.15,3.15,3.15,3.15,3.15,3.15,3.15,4.56,4.56,4.56,4.56,4.56,4.56,4.56,4.56,4.56,4.56,4.56,4.56,4.56,4.56,4.56,4.56,4.56,4.56,4.56,4.56,4.56,4.56,4.56,4.56,4.56,4.56,4.56,4.56,4.56,4.56,16.05,16.05,16.05,16.05,16.05,16.05,16.05,16.05,16.05,16.05,16.05,16.05,16.05,16.05,16.05,16.05,16.05,16.05,16.05,16.05,16.05,16.05,16.05,16.05,16.05,16.05,16.05,16.05,16.05,16.05,16.05,0,0,0,0,0,0,0,0,0,0,0,0,0,0,0,0,0,0,0,0,0,0,0,0,0,0,0,0,0,0,0,11.33,11.33,11.33,11.33,11.33,11.33,11.33,11.33,11.33,11.33,11.33,11.33,11.33,11.33,11.33,11.33,11.33,11.33,11.33,11.33,11.33,11.33,11.33,11.33,11.33,11.33,11.33,11.33,10.68,10.68,10.68,10.68,10.68,10.68,10.68,10.68,10.68,10.68,10.68,10.68,10.68,10.68,10.68,10.68,10.68,10.68,10.68,10.68,10.68,10.68,10.68,10.68,10.68,10.68,10.68,10.68,10.68,10.68,10.68
D,Hendrina,21.35483871,21.35483871,21.35483871,21.35483871,21.35483871,21.35483871,21.35483871,21.35483871,21.35483871,21.35483871,21.35483871,21.35483871,21.35483871,21.35483871,21.35483871,21.35483871,21.35483871,21.35483871,21.35483871,21.35483871,21.35483871,21.35483871,21.35483871,21.35483871,21.35483871,21.35483871,21.35483871,21.35483871,21.35483871,21.35483871,14.8117233,14.8117233,14.8117233,14.8117233,14.8117233,14.8117233,14.8117233,14.8117233,14.8117233,14.8117233,14.8117233,14.8117233,14.8117233,14.8117233,14.8117233,14.8117233,14.8117233,14.8117233,14.8117233,14.8117233,14.8117233,14.8117233,14.8117233,14.8117233,14.8117233,14.8117233,14.8117233,14.8117233,14.8117233,14.8117233,14.8117233,3.772710419,3.772710419,3.772710419,3.772710419,3.772710419,3.772710419,3.772710419,3.772710419,3.772710419,3.772710419,3.772710419,3.772710419,3.772710419,3.772710419,3.772710419,3.772710419,3.772710419,3.772710419,3.772710419,3.772710419,3.772710419,3.772710419,3.772710419,3.772710419,3.772710419,3.772710419,3.772710419,3.772710419,3.772710419,3.772710419,10.57626754,10.57626754,10.57626754,10.57626754,10.57626754,10.57626754,10.57626754,10.57626754,10.57626754,10.57626754,10.57626754,10.57626754,10.57626754,10.57626754,10.57626754,10.57626754,10.57626754,10.57626754,10.57626754,10.57626754,10.57626754,10.57626754,10.57626754,10.57626754,10.57626754,10.57626754,10.57626754,10.57626754,10.57626754,10.57626754,10.57626754,19.18798665,19.18798665,19.18798665,19.18798665,19.18798665,19.18798665,19.18798665,19.18798665,19.18798665,19.18798665,19.18798665,19.18798665,19.18798665,19.18798665,19.18798665,19.18798665,19.18798665,19.18798665,19.18798665,19.18798665,19.18798665,19.18798665,19.18798665,19.18798665,19.18798665,19.18798665,19.18798665,19.18798665,19.18798665,19.18798665,19.18798665,19.18798665,19.18798665,19.18798665,19.18798665,19.18798665,19.18798665,19.18798665,19.18798665,19.18798665,19.18798665,19.18798665,19.18798665,19.18798665,19.18798665,19.18798665,19.18798665,19.18798665,19.18798665,19.18798665,19.18798665,19.18798665,19.18798665,19.18798665,19.18798665,19.18798665,19.18798665,19.18798665,19.18798665,19.18798665,19.18798665,10.2106283,10.2106283,10.2106283,10.2106283,10.2106283,10.2106283,10.2106283,10.2106283,10.2106283,10.2106283,10.2106283,10.2106283,10.2106283,10.2106283,10.2106283,10.2106283,10.2106283,10.2106283,10.2106283,10.2106283,10.2106283,10.2106283,10.2106283,10.2106283,10.2106283,10.2106283,10.2106283,10.2106283,10.2106283,10.2106283,10.2106283,6.756686957,6.756686957,6.756686957,6.756686957,6.756686957,6.756686957,6.756686957,6.756686957,6.756686957,6.756686957,6.756686957,6.756686957,6.756686957,6.756686957,6.756686957,6.756686957,6.756686957,6.756686957,6.756686957,6.756686957,6.756686957,6.756686957,6.756686957,6.756686957,6.756686957,6.756686957,6.756686957,6.756686957,6.756686957,6.756686957,10.3145996,10.3145996,10.3145996,10.3145996,10.3145996,10.3145996,10.3145996,10.3145996,10.3145996,10.3145996,10.3145996,10.3145996,10.3145996,10.3145996,10.3145996,10.3145996,10.3145996,10.3145996,10.3145996,10.3145996,10.3145996,10.3145996,10.3145996,10.3145996,10.3145996,10.3145996,10.3145996,10.3145996,10.3145996,10.3145996,10.3145996,17.95730023,17.95730023,17.95730023,17.95730023,17.95730023,17.95730023,17.95730023,17.95730023,17.95730023,17.95730023,17.95730023,17.95730023,17.95730023,17.95730023,17.95730023,17.95730023,17.95730023,17.95730023,17.95730023,17.95730023,17.95730023,17.95730023,17.95730023,17.95730023,17.95730023,17.95730023,17.95730023,17.95730023,17.95730023,17.95730023,17.95730023,15.36751069,15.36751069,15.36751069,15.36751069,15.36751069,15.36751069,15.36751069,15.36751069,15.36751069,15.36751069,15.36751069,15.36751069,15.36751069,15.36751069,15.36751069,15.36751069,15.36751069,15.36751069,15.36751069,15.36751069,15.36751069,15.36751069,15.36751069,15.36751069,15.36751069,15.36751069,15.36751069,15.36751069,13.67066803,13.67066803,13.67066803,13.67066803,13.67066803,13.67066803,13.67066803,13.67066803,13.67066803,13.67066803,13.67066803,13.67066803,13.67066803,13.67066803,13.67066803,13.67066803,13.67066803,13.67066803,13.67066803,13.67066803,13.67066803,13.67066803,13.67066803,13.67066803,13.67066803,13.67066803,13.67066803,13.67066803,13.67066803,13.67066803,13.67066803
E,Matla,2.1,2.1,2.1,2.1,2.1,2.1,2.1,2.1,2.1,2.1,2.1,2.1,2.1,2.1,2.1,2.1,2.1,2.1,2.1,2.1,2.1,2.1,2.1,2.1,2.1,2.1,2.1,2.1,2.1,2.1,17.2,17.2,17.2,17.2,17.2,17.2,17.2,17.2,17.2,17.2,17.2,17.2,17.2,17.2,17.2,17.2,17.2,17.2,17.2,17.2,17.2,17.2,17.2,17.2,17.2,17.2,17.2,17.2,17.2,17.2,17.2,17.2,17.2,17.2,17.2,17.2,17.2,17.2,17.2,17.2,17.2,17.2,17.2,17.2,17.2,17.2,17.2,17.2,17.2,17.2,17.2,17.2,17.2,17.2,17.2,17.2,17.2,17.2,17.2,17.2,17.2,17.2,17.2,17.2,17.2,17.2,17.2,17.2,17.2,17.2,17.2,17.2,17.2,17.2,17.2,17.2,17.2,17.2,17.2,17.2,17.2,17.2,17.2,17.2,17.2,17.2,17.2,17.2,17.2,17.2,17.2,17.2,30.6,30.6,30.6,30.6,30.6,30.6,30.6,30.6,30.6,30.6,30.6,30.6,30.6,30.6,30.6,30.6,30.6,30.6,30.6,30.6,30.6,30.6,30.6,30.6,30.6,30.6,30.6,30.6,30.6,30.6,30.6,17.2,17.2,17.2,17.2,17.2,17.2,17.2,17.2,17.2,17.2,17.2,17.2,17.2,17.2,17.2,17.2,17.2,17.2,17.2,17.2,17.2,17.2,17.2,17.2,17.2,17.2,17.2,17.2,17.2,17.2,15.2,15.2,15.2,15.2,15.2,15.2,15.2,15.2,15.2,15.2,15.2,15.2,15.2,15.2,15.2,15.2,15.2,15.2,15.2,15.2,15.2,15.2,15.2,15.2,15.2,15.2,15.2,15.2,15.2,15.2,15.2,10.6,10.6,10.6,10.6,10.6,10.6,10.6,10.6,10.6,10.6,10.6,10.6,10.6,10.6,10.6,10.6,10.6,10.6,10.6,10.6,10.6,10.6,10.6,10.6,10.6,10.6,10.6,10.6,10.6,10.6,6,6,6,6,6,6,6,6,6,6,6,6,6,6,6,6,6,6,6,6,6,6,6,6,6,6,6,6,6,6,6,8,8,8,8,8,8,8,8,8,8,8,8,8,8,8,8,8,8,8,8,8,8,8,8,8,8,8,8,8,8,8,2,2,2,2,2,2,2,2,2,2,2,2,2,2,2,2,2,2,2,2,2,2,2,2,2,2,2,2,9.1,9.1,9.1,9.1,9.1,9.1,9.1,9.1,9.1,9.1,9.1,9.1,9.1,9.1,9.1,9.1,9.1,9.1,9.1,9.1,9.1,9.1,9.1,9.1,9.1,9.1,9.1,9.1,9.1,9.1,9.1
F,Kriel 1_3,31.9992284,31.9992284,31.9992284,31.9992284,31.9992284,31.9992284,31.9992284,31.9992284,31.9992284,31.9992284,31.9992284,31.9992284,31.9992284,31.9992284,31.9992284,31.9992284,31.9992284,31.9992284,31.9992284,31.9992284,31.9992284,31.9992284,31.9992284,31.9992284,31.9992284,31.9992284,31.9992284,31.9992284,31.9992284,31.9992284,0,0,0,0,0,0,0,0,0,0,0,0,0,0,0,0,0,0,0,0,0,0,0,0,0,0,0,0,0,0,0,0,0,0,0,0,0,0,0,0,0,0,0,0,0,0,0,0,0,0,0,0,0,0,0,0,0,0,0,0,0,3.2,3.2,3.2,3.2,3.2,3.2,3.2,3.2,3.2,3.2,3.2,3.2,3.2,3.2,3.2,3.2,3.2,3.2,3.2,3.2,3.2,3.2,3.2,3.2,3.2,3.2,3.2,3.2,3.2,3.2,3.2,0,0,0,0,0,0,0,0,0,0,0,0,0,0,0,0,0,0,0,0,0,0,0,0,0,0,0,0,0,0,0,0,0,0,0,0,0,0,0,0,0,0,0,0,0,0,0,0,0,0,0,0,0,0,0,0,0,0,0,0,0,0,0,0,0,0,0,0,0,0,0,0,0,0,0,0,0,0,0,0,0,0,0,0,0,0,0,0,0,0,0,0,12,12,12,12,12,12,12,12,12,12,12,12,12,12,12,12,12,12,12,12,12,12,12,12,12,12,12,12,12,12,24.8057049,24.8057049,24.8057049,24.8057049,24.8057049,24.8057049,24.8057049,24.8057049,24.8057049,24.8057049,24.8057049,24.8057049,24.8057049,24.8057049,24.8057049,24.8057049,24.8057049,24.8057049,24.8057049,24.8057049,24.8057049,24.8057049,24.8057049,24.8057049,24.8057049,24.8057049,24.8057049,24.8057049,24.8057049,24.8057049,24.8057049,37.33333333,37.33333333,37.33333333,37.33333333,37.33333333,37.33333333,37.33333333,37.33333333,37.33333333,37.33333333,37.33333333,37.33333333,37.33333333,37.33333333,37.33333333,37.33333333,37.33333333,37.33333333,37.33333333,37.33333333,37.33333333,37.33333333,37.33333333,37.33333333,37.33333333,37.33333333,37.33333333,37.33333333,37.33333333,37.33333333,37.33333333,29.38012566,29.38012566,29.38012566,29.38012566,29.38012566,29.38012566,29.38012566,29.38012566,29.38012566,29.38012566,29.38012566,29.38012566,29.38012566,29.38012566,29.38012566,29.38012566,29.38012566,29.38012566,29.38012566,29.38012566,29.38012566,29.38012566,29.38012566,29.38012566,29.38012566,29.38012566,29.38012566,29.38012566,0,0,0,0,0,0,0,0,0,0,0,0,0,0,0,0,0,0,0,0,0,0,0,0,0,0,0,0,0,0,0
G,Kriel 4_6,0,0,0,0,0,0,0,0,0,0,0,0,0,0,0,0,0,0,0,0,0,0,0,0,0,0,0,0,0,0,0,0,0,0,0,0,0,0,0,0,0,0,0,0,0,0,0,0,0,0,0,0,0,0,0,0,0,0,0,0,0,0,0,0,0,0,0,0,0,0,0,0,0,0,0,0,0,0,0,0,0,0,0,0,0,0,0,0,0,0,0,0,0,0,0,0,0,0,0,0,0,0,0,0,0,0,0,0,0,0,0,0,0,0,0,0,0,0,0,0,0,0,0,0,0,0,0,0,0,0,0,0,0,0,0,0,0,0,0,0,0,0,0,0,0,0,0,0,0,0,0,0,0,13.33333333,13.33333333,13.33333333,13.33333333,13.33333333,13.33333333,13.33333333,13.33333333,13.33333333,13.33333333,13.33333333,13.33333333,13.33333333,13.33333333,13.33333333,13.33333333,13.33333333,13.33333333,13.33333333,13.33333333,13.33333333,13.33333333,13.33333333,13.33333333,13.33333333,13.33333333,13.33333333,13.33333333,13.33333333,13.33333333,27.63366189,27.63366189,27.63366189,27.63366189,27.63366189,27.63366189,27.63366189,27.63366189,27.63366189,27.63366189,27.63366189,27.63366189,27.63366189,27.63366189,27.63366189,27.63366189,27.63366189,27.63366189,27.63366189,27.63366189,27.63366189,27.63366189,27.63366189,27.63366189,27.63366189,27.63366189,27.63366189,27.63366189,27.63366189,27.63366189,27.63366189,27.33333333,27.33333333,27.33333333,27.33333333,27.33333333,27.33333333,27.33333333,27.33333333,27.33333333,27.33333333,27.33333333,27.33333333,27.33333333,27.33333333,27.33333333,27.33333333,27.33333333,27.33333333,27.33333333,27.33333333,27.33333333,27.33333333,27.33333333,27.33333333,27.33333333,27.33333333,27.33333333,27.33333333,27.33333333,27.33333333,37.18204898,37.18204898,37.18204898,37.18204898,37.18204898,37.18204898,37.18204898,37.18204898,37.18204898,37.18204898,37.18204898,37.18204898,37.18204898,37.18204898,37.18204898,37.18204898,37.18204898,37.18204898,37.18204898,37.18204898,37.18204898,37.18204898,37.18204898,37.18204898,37.18204898,37.18204898,37.18204898,37.18204898,37.18204898,37.18204898,37.18204898,8,8,8,8,8,8,8,8,8,8,8,8,8,8,8,8,8,8,8,8,8,8,8,8,8,8,8,8,8,8,8,2,2,2,2,2,2,2,2,2,2,2,2,2,2,2,2,2,2,2,2,2,2,2,2,2,2,2,2,17.20355436,17.20355436,17.20355436,17.20355436,17.20355436,17.20355436,17.20355436,17.20355436,17.20355436,17.20355436,17.20355436,17.20355436,17.20355436,17.20355436,17.20355436,17.20355436,17.20355436,17.20355436,17.20355436,17.20355436,17.20355436,17.20355436,17.20355436,17.20355436,17.20355436,17.20355436,17.20355436,17.20355436,17.20355436,17.20355436,17.20355436
n.a.,Kusile,0,0,0,0,0,0,0,0,0,0,0,0,0,0,0,0,0,0,0,0,0,0,0,0,0,0,0,0,0,0,0,0,0,0,0,0,0,0,0,0,0,0,0,0,0,0,0,0,0,0,0,0,0,0,0,0,0,0,0,0,0,0,0,0,0,0,0,0,0,0,0,0,0,0,0,0,0,0,0,0,0,0,0,0,0,0,0,0,0,0,0,0,0,0,0,0,0,0,0,0,0,0,0,0,0,0,0,0,0,0,0,0,0,0,0,0,0,0,0,0,0,0,0,0,0,0,0,0,0,0,0,0,0,0,0,0,0,0,0,0,0,0,0,0,0,0,0,0,0,0,0,0,0,0,0,0,0,0,0,0,0,0,0,0,0,0,0,0,0,0,0,0,0,0,0,0,0,0,0,0,0,0,0,0,0,0,0,0,0,0,0,0,0,0,0,0,0,0,0,0,0,0,0,0,0,0,0,0,0,0,0,0,0,0,0,0,0,0,0,0,0,0,0,0,0,0,0,0,0,0,0,0,0,0,0,0,0,0,0,0,0,0,0,0,0,0,0,0,0,0,0,0,0,0,0,0,0,0,0,0,0,0,0,0,0,0,0,0,0,0,0,0,0,0,0,0,0,0,0,0,0,0,0,0,0,0,0,0,0,0,0,0,0,0,0,0,0,0,0,0,0,0,0,0,0,0,0,0,0,0,0,0,0,0,0,0,0,0,0,0,0,0,0,0,0,0,0,0,0,0,0,0,0,0,0,0,0,0,0,0,0,0,0,0,0,0,0,0,0,0,0,0,0,0,0,0,0,0,0,0,0,0,0,0,0
H,Kendal,19.2,19.2,19.2,19.2,19.2,19.2,19.2,19.2,19.2,19.2,19.2,19.2,19.2,19.2,19.2,19.2,19.2,19.2,19.2,19.2,19.2,19.2,19.2,19.2,19.2,19.2,19.2,19.2,19.2,19.2,16.6,16.6,16.6,16.6,16.6,16.6,16.6,16.6,16.6,16.6,16.6,16.6,16.6,16.6,16.6,16.6,16.6,16.6,16.6,16.6,16.6,16.6,16.6,16.6,16.6,16.6,16.6,16.6,16.6,16.6,16.6,17.2,17.2,17.2,17.2,17.2,17.2,17.2,17.2,17.2,17.2,17.2,17.2,17.2,17.2,17.2,17.2,17.2,17.2,17.2,17.2,17.2,17.2,17.2,17.2,17.2,17.2,17.2,17.2,17.2,17.2,15.6,15.6,15.6,15.6,15.6,15.6,15.6,15.6,15.6,15.6,15.6,15.6,15.6,15.6,15.6,15.6,15.6,15.6,15.6,15.6,15.6,15.6,15.6,15.6,15.6,15.6,15.6,15.6,15.6,15.6,15.6,0,0,0,0,0,0,0,0,0,0,0,0,0,0,0,0,0,0,0,0,0,0,0,0,0,0,0,0,0,0,0,4.9,4.9,4.9,4.9,4.9,4.9,4.9,4.9,4.9,4.9,4.9,4.9,4.9,4.9,4.9,4.9,4.9,4.9,4.9,4.9,4.9,4.9,4.9,4.9,4.9,4.9,4.9,4.9,4.9,4.9,0,0,0,0,0,0,0,0,0,0,0,0,0,0,0,0,0,0,0,0,0,0,0,0,0,0,0,0,0,0,0,7.8,7.8,7.8,7.8,7.8,7.8,7.8,7.8,7.8,7.8,7.8,7.8,7.8,7.8,7.8,7.8,7.8,7.8,7.8,7.8,7.8,7.8,7.8,7.8,7.8,7.8,7.8,7.8,7.8,7.8,4.2,4.2,4.2,4.2,4.2,4.2,4.2,4.2,4.2,4.2,4.2,4.2,4.2,4.2,4.2,4.2,4.2,4.2,4.2,4.2,4.2,4.2,4.2,4.2,4.2,4.2,4.2,4.2,4.2,4.2,4.2,2,2,2,2,2,2,2,2,2,2,2,2,2,2,2,2,2,2,2,2,2,2,2,2,2,2,2,2,2,2,2,8.294055925,8.294055925,8.294055925,8.294055925,8.294055925,8.294055925,8.294055925,8.294055925,8.294055925,8.294055925,8.294055925,8.294055925,8.294055925,8.294055925,8.294055925,8.294055925,8.294055925,8.294055925,8.294055925,8.294055925,8.294055925,8.294055925,8.294055925,8.294055925,8.294055925,8.294055925,8.294055925,8.294055925,4.8,4.8,4.8,4.8,4.8,4.8,4.8,4.8,4.8,4.8,4.8,4.8,4.8,4.8,4.8,4.8,4.8,4.8,4.8,4.8,4.8,4.8,4.8,4.8,4.8,4.8,4.8,4.8,4.8,4.8,4.8
I,Majuba,18.09,18.09,18.09,18.09,18.09,18.09,18.09,18.09,18.09,18.09,18.09,18.09,18.09,18.09,18.09,18.09,18.09,18.09,18.09,18.09,18.09,18.09,18.09,18.09,18.09,18.09,18.09,18.09,18.09,18.09,0,0,0,0,0,0,0,0,0,0,0,0,0,0,0,0,0,0,0,0,0,0,0,0,0,0,0,0,0,0,0,0,0,0,0,0,0,0,0,0,0,0,0,0,0,0,0,0,0,0,0,0,0,0,0,0,0,0,0,0,0,0,0,0,0,0,0,0,0,0,0,0,0,0,0,0,0,0,0,0,0,0,0,0,0,0,0,0,0,0,0,0,0,0,0,0,0,0,0,0,0,0,0,0,0,0,0,0,0,0,0,0,0,0,0,0,0,0,0,0,0,0,0,16.91,16.91,16.91,16.91,16.91,16.91,16.91,16.91,16.91,16.91,16.91,16.91,16.91,16.91,16.91,16.91,16.91,16.91,16.91,16.91,16.91,16.91,16.91,16.91,16.91,16.91,16.91,16.91,16.91,16.91,16.83,16.83,16.83,16.83,16.83,16.83,16.83,16.83,16.83,16.83,16.83,16.83,16.83,16.83,16.83,16.83,16.83,16.83,16.83,16.83,16.83,16.83,16.83,16.83,16.83,16.83,16.83,16.83,16.83,16.83,16.83,7.86,7.86,7.86,7.86,7.86,7.86,7.86,7.86,7.86,7.86,7.86,7.86,7.86,7.86,7.86,7.86,7.86,7.86,7.86,7.86,7.86,7.86,7.86,7.86,7.86,7.86,7.86,7.86,7.86,7.86,14.86,14.86,14.86,14.86,14.86,14.86,14.86,14.86,14.86,14.86,14.86,14.86,14.86,14.86,14.86,14.86,14.86,14.86,14.86,14.86,14.86,14.86,14.86,14.86,14.86,14.86,14.86,14.86,14.86,14.86,14.86,8,8,8,8,8,8,8,8,8,8,8,8,8,8,8,8,8,8,8,8,8,8,8,8,8,8,8,8,8,8,8,11.7,11.7,11.7,11.7,11.7,11.7,11.7,11.7,11.7,11.7,11.7,11.7,11.7,11.7,11.7,11.7,11.7,11.7,11.7,11.7,11.7,11.7,11.7,11.7,11.7,11.7,11.7,11.7,3.42,3.42,3.42,3.42,3.42,3.42,3.42,3.42,3.42,3.42,3.42,3.42,3.42,3.42,3.42,3.42,3.42,3.42,3.42,3.42,3.42,3.42,3.42,3.42,3.42,3.42,3.42,3.42,3.42,3.42,3.42
J,Tutuka,15.8,15.8,15.8,15.8,15.8,15.8,15.8,15.8,15.8,15.8,15.8,15.8,15.8,15.8,15.8,15.8,15.8,15.8,15.8,15.8,15.8,15.8,15.8,15.8,15.8,15.8,15.8,15.8,15.8,15.8,16.1,16.1,16.1,16.1,16.1,16.1,16.1,16.1,16.1,16.1,16.1,16.1,16.1,16.1,16.1,16.1,16.1,16.1,16.1,16.1,16.1,16.1,16.1,16.1,16.1,16.1,16.1,16.1,16.1,16.1,16.1,0,0,0,0,0,0,0,0,0,0,0,0,0,0,0,0,0,0,0,0,0,0,0,0,0,0,0,0,0,0,0,0,0,0,0,0,0,0,0,0,0,0,0,0,0,0,0,0,0,0,0,0,0,0,0,0,0,0,0,0,0,21.5,21.5,21.5,21.5,21.5,21.5,21.5,21.5,21.5,21.5,21.5,21.5,21.5,21.5,21.5,21.5,21.5,21.5,21.5,21.5,21.5,21.5,21.5,21.5,21.5,21.5,21.5,21.5,21.5,21.5,21.5,26.6,26.6,26.6,26.6,26.6,26.6,26.6,26.6,26.6,26.6,26.6,26.6,26.6,26.6,26.6,26.6,26.6,26.6,26.6,26.6,26.6,26.6,26.6,26.6,26.6,26.6,26.6,26.6,26.6,26.6,8.1,8.1,8.1,8.1,8.1,8.1,8.1,8.1,8.1,8.1,8.1,8.1,8.1,8.1,8.1,8.1,8.1,8.1,8.1,8.1,8.1,8.1,8.1,8.1,8.1,8.1,8.1,8.1,8.1,8.1,8.1,1.2,1.2,1.2,1.2,1.2,1.2,1.2,1.2,1.2,1.2,1.2,1.2,1.2,1.2,1.2,1.2,1.2,1.2,1.2,1.2,1.2,1.2,1.2,1.2,1.2,1.2,1.2,1.2,1.2,1.2,6,6,6,6,6,6,6,6,6,6,6,6,6,6,6,6,6,6,6,6,6,6,6,6,6,6,6,6,6,6,6,3.5,3.5,3.5,3.5,3.5,3.5,3.5,3.5,3.5,3.5,3.5,3.5,3.5,3.5,3.5,3.5,3.5,3.5,3.5,3.5,3.5,3.5,3.5,3.5,3.5,3.5,3.5,3.5,3.5,3.5,3.5,5.8,5.8,5.8,5.8,5.8,5.8,5.8,5.8,5.8,5.8,5.8,5.8,5.8,5.8,5.8,5.8,5.8,5.8,5.8,5.8,5.8,5.8,5.8,5.8,5.8,5.8,5.8,5.8,8.5,8.5,8.5,8.5,8.5,8.5,8.5,8.5,8.5,8.5,8.5,8.5,8.5,8.5,8.5,8.5,8.5,8.5,8.5,8.5,8.5,8.5,8.5,8.5,8.5,8.5,8.5,8.5,8.5,8.5,8.5
K,Camden,17.82264236,17.82264236,17.82264236,17.82264236,17.82264236,17.82264236,17.82264236,17.82264236,17.82264236,17.82264236,17.82264236,17.82264236,17.82264236,17.82264236,17.82264236,17.82264236,17.82264236,17.82264236,17.82264236,17.82264236,17.82264236,17.82264236,17.82264236,17.82264236,17.82264236,17.82264236,17.82264236,17.82264236,17.82264236,17.82264236,24.65833896,24.65833896,24.65833896,24.65833896,24.65833896,24.65833896,24.65833896,24.65833896,24.65833896,24.65833896,24.65833896,24.65833896,24.65833896,24.65833896,24.65833896,24.65833896,24.65833896,24.65833896,24.65833896,24.65833896,24.65833896,24.65833896,24.65833896,24.65833896,24.65833896,24.65833896,24.65833896,24.65833896,24.65833896,24.65833896,24.65833896,24.65833896,24.65833896,24.65833896,24.65833896,24.65833896,24.65833896,24.65833896,24.65833896,24.65833896,24.65833896,24.65833896,24.65833896,24.65833896,24.65833896,24.65833896,24.65833896,24.65833896,24.65833896,24.65833896,24.65833896,24.65833896,24.65833896,24.65833896,24.65833896,24.65833896,24.65833896,24.65833896,24.65833896,24.65833896,24.65833896,20.93345398,20.93345398,20.93345398,20.93345398,20.93345398,20.93345398,20.93345398,20.93345398,20.93345398,20.93345398,20.93345398,20.93345398,20.93345398,20.93345398,20.93345398,20.93345398,20.93345398,20.93345398,20.93345398,20.93345398,20.93345398,20.93345398,20.93345398,20.93345398,20.93345398,20.93345398,20.93345398,20.93345398,20.93345398,20.93345398,20.93345398,7.035063613,7.035063613,7.035063613,7.035063613,7.035063613,7.035063613,7.035063613,7.035063613,7.035063613,7.035063613,7.035063613,7.035063613,7.035063613,7.035063613,7.035063613,7.035063613,7.035063613,7.035063613,7.035063613,7.035063613,7.035063613,7.035063613,7.035063613,7.035063613,7.035063613,7.035063613,7.035063613,7.035063613,7.035063613,7.035063613,7.035063613,0,0,0,0,0,0,0,0,0,0,0,0,0,0,0,0,0,0,0,0,0,0,0,0,0,0,0,0,0,0,8.491559757,8.491559757,8.491559757,8.491559757,8.491559757,8.491559757,8.491559757,8.491559757,8.491559757,8.491559757,8.491559757,8.491559757,8.491559757,8.491559757,8.491559757,8.491559757,8.491559757,8.491559757,8.491559757,8.491559757,8.491559757,8.491559757,8.491559757,8.491559757,8.491559757,8.491559757,8.491559757,8.491559757,8.491559757,8.491559757,8.491559757,6.8257293,6.8257293,6.8257293,6.8257293,6.8257293,6.8257293,6.8257293,6.8257293,6.8257293,6.8257293,6.8257293,6.8257293,6.8257293,6.8257293,6.8257293,6.8257293,6.8257293,6.8257293,6.8257293,6.8257293,6.8257293,6.8257293,6.8257293,6.8257293,6.8257293,6.8257293,6.8257293,6.8257293,6.8257293,6.8257293,4.74444033,4.74444033,4.74444033,4.74444033,4.74444033,4.74444033,4.74444033,4.74444033,4.74444033,4.74444033,4.74444033,4.74444033,4.74444033,4.74444033,4.74444033,4.74444033,4.74444033,4.74444033,4.74444033,4.74444033,4.74444033,4.74444033,4.74444033,4.74444033,4.74444033,4.74444033,4.74444033,4.74444033,4.74444033,4.74444033,4.74444033,14.15395003,14.15395003,14.15395003,14.15395003,14.15395003,14.15395003,14.15395003,14.15395003,14.15395003,14.15395003,14.15395003,14.15395003,14.15395003,14.15395003,14.15395003,14.15395003,14.15395003,14.15395003,14.15395003,14.15395003,14.15395003,14.15395003,14.15395003,14.15395003,14.15395003,14.15395003,14.15395003,14.15395003,14.15395003,14.15395003,14.15395003,9.812952156,9.812952156,9.812952156,9.812952156,9.812952156,9.812952156,9.812952156,9.812952156,9.812952156,9.812952156,9.812952156,9.812952156,9.812952156,9.812952156,9.812952156,9.812952156,9.812952156,9.812952156,9.812952156,9.812952156,9.812952156,9.812952156,9.812952156,9.812952156,9.812952156,9.812952156,9.812952156,9.812952156,0,0,0,0,0,0,0,0,0,0,0,0,0,0,0,0,0,0,0,0,0,0,0,0,0,0,0,0,0,0,0
L,Arnot,3.122376128,3.122376128,3.122376128,3.122376128,3.122376128,3.122376128,3.122376128,3.122376128,3.122376128,3.122376128,3.122376128,3.122376128,3.122376128,3.122376128,3.122376128,3.122376128,3.122376128,3.122376128,3.122376128,3.122376128,3.122376128,3.122376128,3.122376128,3.122376128,3.122376128,3.122376128,3.122376128,3.122376128,3.122376128,3.122376128,17.23717056,17.23717056,17.23717056,17.23717056,17.23717056,17.23717056,17.23717056,17.23717056,17.23717056,17.23717056,17.23717056,17.23717056,17.23717056,17.23717056,17.23717056,17.23717056,17.23717056,17.23717056,17.23717056,17.23717056,17.23717056,17.23717056,17.23717056,17.23717056,17.23717056,17.23717056,17.23717056,17.23717056,17.23717056,17.23717056,17.23717056,14.03784183,14.03784183,14.03784183,14.03784183,14.03784183,14.03784183,14.03784183,14.03784183,14.03784183,14.03784183,14.03784183,14.03784183,14.03784183,14.03784183,14.03784183,14.03784183,14.03784183,14.03784183,14.03784183,14.03784183,14.03784183,14.03784183,14.03784183,14.03784183,14.03784183,14.03784183,14.03784183,14.03784183,14.03784183,14.03784183,0,0,0,0,0,0,0,0,0,0,0,0,0,0,0,0,0,0,0,0,0,0,0,0,0,0,0,0,0,0,0,2.391292426,2.391292426,2.391292426,2.391292426,2.391292426,2.391292426,2.391292426,2.391292426,2.391292426,2.391292426,2.391292426,2.391292426,2.391292426,2.391292426,2.391292426,2.391292426,2.391292426,2.391292426,2.391292426,2.391292426,2.391292426,2.391292426,2.391292426,2.391292426,2.391292426,2.391292426,2.391292426,2.391292426,2.391292426,2.391292426,2.391292426,1.404335507,1.404335507,1.404335507,1.404335507,1.404335507,1.404335507,1.404335507,1.404335507,1.404335507,1.404335507,1.404335507,1.404335507,1.404335507,1.404335507,1.404335507,1.404335507,1.404335507,1.404335507,1.404335507,1.404335507,1.404335507,1.404335507,1.404335507,1.404335507,1.404335507,1.404335507,1.404335507,1.404335507,1.404335507,1.404335507,2.391292426,2.391292426,2.391292426,2.391292426,2.391292426,2.391292426,2.391292426,2.391292426,2.391292426,2.391292426,2.391292426,2.391292426,2.391292426,2.391292426,2.391292426,2.391292426,2.391292426,2.391292426,2.391292426,2.391292426,2.391292426,2.391292426,2.391292426,2.391292426,2.391292426,2.391292426,2.391292426,2.391292426,2.391292426,2.391292426,2.391292426,0,0,0,0,0,0,0,0,0,0,0,0,0,0,0,0,0,0,0,0,0,0,0,0,0,0,0,0,0,0,0,0,0,0,0,0,0,0,0,0,0,0,0,0,0,0,0,0,0,0,0,0,0,0,0,0,0,0,0,0,0,0,0,0,0,0,0,0,0,0,0,0,0,0,0,0,0,0,0,0,0,0,0,0,0,0,0,0,0,0,0,0,13.31404099,13.31404099,13.31404099,13.31404099,13.31404099,13.31404099,13.31404099,13.31404099,13.31404099,13.31404099,13.31404099,13.31404099,13.31404099,13.31404099,13.31404099,13.31404099,13.31404099,13.31404099,13.31404099,13.31404099,13.31404099,13.31404099,13.31404099,13.31404099,13.31404099,13.31404099,13.31404099,13.31404099,16.07194473,16.07194473,16.07194473,16.07194473,16.07194473,16.07194473,16.07194473,16.07194473,16.07194473,16.07194473,16.07194473,16.07194473,16.07194473,16.07194473,16.07194473,16.07194473,16.07194473,16.07194473,16.07194473,16.07194473,16.07194473,16.07194473,16.07194473,16.07194473,16.07194473,16.07194473,16.07194473,16.07194473,16.07194473,16.07194473,16.07194473
M,Komati,0,0,0,0,0,0,0,0,0,0,0,0,0,0,0,0,0,0,0,0,0,0,0,0,0,0,0,0,0,0,1.5,1.5,1.5,1.5,1.5,1.5,1.5,1.5,1.5,1.5,1.5,1.5,1.5,1.5,1.5,1.5,1.5,1.5,1.5,1.5,1.5,1.5,1.5,1.5,1.5,1.5,1.5,1.5,1.5,1.5,1.5,5.033185841,5.033185841,5.033185841,5.033185841,5.033185841,5.033185841,5.033185841,5.033185841,5.033185841,5.033185841,5.033185841,5.033185841,5.033185841,5.033185841,5.033185841,5.033185841,5.033185841,5.033185841,5.033185841,5.033185841,5.033185841,5.033185841,5.033185841,5.033185841,5.033185841,5.033185841,5.033185841,5.033185841,5.033185841,5.033185841,4.221156172,4.221156172,4.221156172,4.221156172,4.221156172,4.221156172,4.221156172,4.221156172,4.221156172,4.221156172,4.221156172,4.221156172,4.221156172,4.221156172,4.221156172,4.221156172,4.221156172,4.221156172,4.221156172,4.221156172,4.221156172,4.221156172,4.221156172,4.221156172,4.221156172,4.221156172,4.221156172,4.221156172,4.221156172,4.221156172,4.221156172,16.574853,16.574853,16.574853,16.574853,16.574853,16.574853,16.574853,16.574853,16.574853,16.574853,16.574853,16.574853,16.574853,16.574853,16.574853,16.574853,16.574853,16.574853,16.574853,16.574853,16.574853,16.574853,16.574853,16.574853,16.574853,16.574853,16.574853,16.574853,16.574853,16.574853,16.574853,15.11032756,15.11032756,15.11032756,15.11032756,15.11032756,15.11032756,15.11032756,15.11032756,15.11032756,15.11032756,15.11032756,15.11032756,15.11032756,15.11032756,15.11032756,15.11032756,15.11032756,15.11032756,15.11032756,15.11032756,15.11032756,15.11032756,15.11032756,15.11032756,15.11032756,15.11032756,15.11032756,15.11032756,15.11032756,15.11032756,8.312223947,8.312223947,8.312223947,8.312223947,8.312223947,8.312223947,8.312223947,8.312223947,8.312223947,8.312223947,8.312223947,8.312223947,8.312223947,8.312223947,8.312223947,8.312223947,8.312223947,8.312223947,8.312223947,8.312223947,8.312223947,8.312223947,8.312223947,8.312223947,8.312223947,8.312223947,8.312223947,8.312223947,8.312223947,8.312223947,8.312223947,1.681415929,1.681415929,1.681415929,1.681415929,1.681415929,1.681415929,1.681415929,1.681415929,1.681415929,1.681415929,1.681415929,1.681415929,1.681415929,1.681415929,1.681415929,1.681415929,1.681415929,1.681415929,1.681415929,1.681415929,1.681415929,1.681415929,1.681415929,1.681415929,1.681415929,1.681415929,1.681415929,1.681415929,1.681415929,1.681415929,16.61061947,16.61061947,16.61061947,16.61061947,16.61061947,16.61061947,16.61061947,16.61061947,16.61061947,16.61061947,16.61061947,16.61061947,16.61061947,16.61061947,16.61061947,16.61061947,16.61061947,16.61061947,16.61061947,16.61061947,16.61061947,16.61061947,16.61061947,16.61061947,16.61061947,16.61061947,16.61061947,16.61061947,16.61061947,16.61061947,16.61061947,14.61061947,14.61061947,14.61061947,14.61061947,14.61061947,14.61061947,14.61061947,14.61061947,14.61061947,14.61061947,14.61061947,14.61061947,14.61061947,14.61061947,14.61061947,14.61061947,14.61061947,14.61061947,14.61061947,14.61061947,14.61061947,14.61061947,14.61061947,14.61061947,14.61061947,14.61061947,14.61061947,14.61061947,14.61061947,14.61061947,14.61061947,1.350825037,1.350825037,1.350825037,1.350825037,1.350825037,1.350825037,1.350825037,1.350825037,1.350825037,1.350825037,1.350825037,1.350825037,1.350825037,1.350825037,1.350825037,1.350825037,1.350825037,1.350825037,1.350825037,1.350825037,1.350825037,1.350825037,1.350825037,1.350825037,1.350825037,1.350825037,1.350825037,1.350825037,0,0,0,0,0,0,0,0,0,0,0,0,0,0,0,0,0,0,0,0,0,0,0,0,0,0,0,0,0,0,0
N,Grootvlei,0,0,0,0,0,0,0,0,0,0,0,0,0,0,0,0,0,0,0,0,0,0,0,0,0,0,0,0,0,0,1.6,1.6,1.6,1.6,1.6,1.6,1.6,1.6,1.6,1.6,1.6,1.6,1.6,1.6,1.6,1.6,1.6,1.6,1.6,1.6,1.6,1.6,1.6,1.6,1.6,1.6,1.6,1.6,1.6,1.6,1.6,16.5,16.5,16.5,16.5,16.5,16.5,16.5,16.5,16.5,16.5,16.5,16.5,16.5,16.5,16.5,16.5,16.5,16.5,16.5,16.5,16.5,16.5,16.5,16.5,16.5,16.5,16.5,16.5,16.5,16.5,16.5,16.5,16.5,16.5,16.5,16.5,16.5,16.5,16.5,16.5,16.5,16.5,16.5,16.5,16.5,16.5,16.5,16.5,16.5,16.5,16.5,16.5,16.5,16.5,16.5,16.5,16.5,16.5,16.5,16.5,16.5,32.4,32.4,32.4,32.4,32.4,32.4,32.4,32.4,32.4,32.4,32.4,32.4,32.4,32.4,32.4,32.4,32.4,32.4,32.4,32.4,32.4,32.4,32.4,32.4,32.4,32.4,32.4,32.4,32.4,32.4,32.4,25.9,25.9,25.9,25.9,25.9,25.9,25.9,25.9,25.9,25.9,25.9,25.9,25.9,25.9,25.9,25.9,25.9,25.9,25.9,25.9,25.9,25.9,25.9,25.9,25.9,25.9,25.9,25.9,25.9,25.9,14.9,14.9,14.9,14.9,14.9,14.9,14.9,14.9,14.9,14.9,14.9,14.9,14.9,14.9,14.9,14.9,14.9,14.9,14.9,14.9,14.9,14.9,14.9,14.9,14.9,14.9,14.9,14.9,14.9,14.9,14.9,26.5,26.5,26.5,26.5,26.5,26.5,26.5,26.5,26.5,26.5,26.5,26.5,26.5,26.5,26.5,26.5,26.5,26.5,26.5,26.5,26.5,26.5,26.5,26.5,26.5,26.5,26.5,26.5,26.5,26.5,24.5,24.5,24.5,24.5,24.5,24.5,24.5,24.5,24.5,24.5,24.5,24.5,24.5,24.5,24.5,24.5,24.5,24.5,24.5,24.5,24.5,24.5,24.5,24.5,24.5,24.5,24.5,24.5,24.5,24.5,24.5,38.5,38.5,38.5,38.5,38.5,38.5,38.5,38.5,38.5,38.5,38.5,38.5,38.5,38.5,38.5,38.5,38.5,38.5,38.5,38.5,38.5,38.5,38.5,38.5,38.5,38.5,38.5,38.5,38.5,38.5,38.5,26.1,26.1,26.1,26.1,26.1,26.1,26.1,26.1,26.1,26.1,26.1,26.1,26.1,26.1,26.1,26.1,26.1,26.1,26.1,26.1,26.1,26.1,26.1,26.1,26.1,26.1,26.1,26.1,23.5,23.5,23.5,23.5,23.5,23.5,23.5,23.5,23.5,23.5,23.5,23.5,23.5,23.5,23.5,23.5,23.5,23.5,23.5,23.5,23.5,23.5,23.5,23.5,23.5,23.5,23.5,23.5,23.5,23.5,23.5
,Ankerlig,0,0,0,0,0,0,0,0,0,0,0,0,0,0,0,0,0,0,0,0,0,0,0,0,0,0,0,0,0,0,0,0,0,0,0,0,0,0,0,0,0,0,0,0,0,0,0,0,0,0,0,0,0,0,0,0,0,0,0,0,0,0,0,0,0,0,0,0,0,0,0,0,0,0,0,0,0,0,0,0,0,0,0,0,0,0,0,0,0,0,0,0,0,0,0,0,0,0,0,0,0,0,0,0,0,0,0,0,0,0,0,0,0,0,0,0,0,0,0,0,0,0,0,0,0,0,0,0,0,0,0,0,0,0,0,0,0,0,0,0,0,0,0,0,0,0,0,0,0,0,0,0,0,0,0,0,0,0,0,0,0,0,0,0,0,0,0,0,0,0,0,0,0,0,0,0,0,0,0,0,0,0,0,0,0,0,0,0,0,0,0,0,0,0,0,0,0,0,0,0,0,0,0,0,0,0,0,0,0,0,0,0,0,0,0,0,0,0,0,0,0,0,0,0,0,0,0,0,0,0,0,0,0,0,0,0,0,0,0,0,0,0,0,0,0,0,0,0,0,0,0,0,0,0,0,0,0,0,0,0,0,0,0,0,0,0,0,0,0,0,0,0,0,0,0,0,0,0,0,0,0,0,0,0,0,0,0,0,0,0,0,0,0,0,0,0,0,0,0,0,0,0,0,0,0,0,0,0,0,0,0,0,0,0,0,0,0,0,0,0,0,0,0,0,0,0,0,0,0,0,0,0,0,0,0,0,0,0,0,0,0,0,0,0,0,0,0,0,0,0,0,0,0,0,0,0,0,0,0,0,0,0,0,0,0
,Gourikwa,0,0,0,0,0,0,0,0,0,0,0,0,0,0,0,0,0,0,0,0,0,0,0,0,0,0,0,0,0,0,0,0,0,0,0,0,0,0,0,0,0,0,0,0,0,0,0,0,0,0,0,0,0,0,0,0,0,0,0,0,0,0,0,0,0,0,0,0,0,0,0,0,0,0,0,0,0,0,0,0,0,0,0,0,0,0,0,0,0,0,0,0,0,0,0,0,0,0,0,0,0,0,0,0,0,0,0,0,0,0,0,0,0,0,0,0,0,0,0,0,0,0,0,0,0,0,0,0,0,0,0,0,0,0,0,0,0,0,0,0,0,0,0,0,0,0,0,0,0,0,0,0,0,0,0,0,0,0,0,0,0,0,0,0,0,0,0,0,0,0,0,0,0,0,0,0,0,0,0,0,0,0,0,0,0,0,0,0,0,0,0,0,0,0,0,0,0,0,0,0,0,0,0,0,0,0,0,0,0,0,0,0,0,0,0,0,0,0,0,0,0,0,0,0,0,0,0,0,0,0,0,0,0,0,0,0,0,0,0,0,0,0,0,0,0,0,0,0,0,0,0,0,0,0,0,0,0,0,0,0,0,0,0,0,0,0,0,0,0,0,0,0,0,0,0,0,0,0,0,0,0,0,0,0,0,0,0,0,0,0,0,0,0,0,0,0,0,0,0,0,0,0,0,0,0,0,0,0,0,0,0,0,0,0,0,0,0,0,0,0,0,0,0,0,0,0,0,0,0,0,0,0,0,0,0,0,0,0,0,0,0,0,0,0,0,0,0,0,0,0,0,0,0,0,0,0,0,0,0,0,0,0,0,0,0
,Acacia,0,0,0,0,0,0,0,0,0,0,0,0,0,0,0,0,0,0,0,0,0,0,0,0,0,0,0,0,0,0,0,0,0,0,0,0,0,0,0,0,0,0,0,0,0,0,0,0,0,0,0,0,0,0,0,0,0,0,0,0,0,0,0,0,0,0,0,0,0,0,0,0,0,0,0,0,0,0,0,0,0,0,0,0,0,0,0,0,0,0,0,0,0,0,0,0,0,0,0,0,0,0,0,0,0,0,0,0,0,0,0,0,0,0,0,0,0,0,0,0,0,0,0,0,0,0,0,0,0,0,0,0,0,0,0,0,0,0,0,0,0,0,0,0,0,0,0,0,0,0,0,0,0,0,0,0,0,0,0,0,0,0,0,0,0,0,0,0,0,0,0,0,0,0,0,0,0,0,0,0,0,0,0,0,0,0,0,0,0,0,0,0,0,0,0,0,0,0,0,0,0,0,0,0,0,0,0,0,0,0,0,0,0,0,0,0,0,0,0,0,0,0,0,0,0,0,0,0,0,0,0,0,0,0,0,0,0,0,0,0,0,0,0,0,0,0,0,0,0,0,0,0,0,0,0,0,0,0,0,0,0,0,0,0,0,0,0,0,0,0,0,0,0,0,0,0,0,0,0,0,0,0,0,0,0,0,0,0,0,0,0,0,0,0,0,0,0,0,0,0,0,0,0,0,0,0,0,0,0,0,0,0,0,0,0,0,0,0,0,0,0,0,0,0,0,0,0,0,0,0,0,0,0,0,0,0,0,0,0,0,0,0,0,0,0,0,0,0,0,0,0,0,0,0,0,0,0,0,0,0,0,0,0,0,0
,Port Rex,0,0,0,0,0,0,0,0,0,0,0,0,0,0,0,0,0,0,0,0,0,0,0,0,0,0,0,0,0,0,0,0,0,0,0,0,0,0,0,0,0,0,0,0,0,0,0,0,0,0,0,0,0,0,0,0,0,0,0,0,0,0,0,0,0,0,0,0,0,0,0,0,0,0,0,0,0,0,0,0,0,0,0,0,0,0,0,0,0,0,0,0,0,0,0,0,0,0,0,0,0,0,0,0,0,0,0,0,0,0,0,0,0,0,0,0,0,0,0,0,0,0,0,0,0,0,0,0,0,0,0,0,0,0,0,0,0,0,0,0,0,0,0,0,0,0,0,0,0,0,0,0,0,0,0,0,0,0,0,0,0,0,0,0,0,0,0,0,0,0,0,0,0,0,0,0,0,0,0,0,0,0,0,0,0,0,0,0,0,0,0,0,0,0,0,0,0,0,0,0,0,0,0,0,0,0,0,0,0,0,0,0,0,0,0,0,0,0,0,0,0,0,0,0,0,0,0,0,0,0,0,0,0,0,0,0,0,0,0,0,0,0,0,0,0,0,0,0,0,0,0,0,0,0,0,0,0,0,0,0,0,0,0,0,0,0,0,0,0,0,0,0,0,0,0,0,0,0,0,0,0,0,0,0,0,0,0,0,0,0,0,0,0,0,0,0,0,0,0,0,0,0,0,0,0,0,0,0,0,0,0,0,0,0,0,0,0,0,0,0,0,0,0,0,0,0,0,0,0,0,0,0,0,0,0,0,0,0,0,0,0,0,0,0,0,0,0,0,0,0,0,0,0,0,0,0,0,0,0,0,0,0,0,0,0
,Unmet,0,0,0,0,0,0,0,0,0,0,0,0,0,0,0,0,0,0,0,0,0,0,0,0,0,0,0,0,0,0,0,0,0,0,0,0,0,0,0,0,0,0,0,0,0,0,0,0,0,0,0,0,0,0,0,0,0,0,0,0,0,0,0,0,0,0,0,0,0,0,0,0,0,0,0,0,0,0,0,0,0,0,0,0,0,0,0,0,0,0,0,0,0,0,0,0,0,0,0,0,0,0,0,0,0,0,0,0,0,0,0,0,0,0,0,0,0,0,0,0,0,0,0,0,0,0,0,0,0,0,0,0,0,0,0,0,0,0,0,0,0,0,0,0,0,0,0,0,0,0,0,0,0,0,0,0,0,0,0,0,0,0,0,0,0,0,0,0,0,0,0,0,0,0,0,0,0,0,0,0,0,0,0,0,0,0,0,0,0,0,0,0,0,0,0,0,0,0,0,0,0,0,0,0,0,0,0,0,0,0,0,0,0,0,0,0,0,0,0,0,0,0,0,0,0,0,0,0,0,0,0,0,0,0,0,0,0,0,0,0,0,0,0,0,0,0,0,0,0,0,0,0,0,0,0,0,0,0,0,0,0,0,0,0,0,0,0,0,0,0,0,0,0,0,0,0,0,0,0,0,0,0,0,0,0,0,0,0,0,0,0,0,0,0,0,0,0,0,0,0,0,0,0,0,0,0,0,0,0,0,0,0,0,0,0,0,0,0,0,0,0,0,0,0,0,0,0,0,0,0,0,0,0,0,0,0,0,0,0,0,0,0,0,0,0,0,0,0,0,0,0,0,0,0,0,0,0,0,0,0,0,0,0,0,0
,Gariep,0,0,0,0,0,0,0,0,0,0,0,0,0,0,0,0,0,0,0,0,0,0,0,0,0,0,0,0,0,0,0,0,0,0,0,0,0,0,0,0,0,0,0,0,0,0,0,0,0,0,0,0,0,0,0,0,0,0,0,0,0,0,0,0,0,0,0,0,0,0,0,0,0,0,0,0,0,0,0,0,0,0,0,0,0,0,0,0,0,0,0,0,0,0,0,0,0,0,0,0,0,0,0,0,0,0,0,0,0,0,0,0,0,0,0,0,0,0,0,0,0,0,0,0,0,0,0,0,0,0,0,0,0,0,0,0,0,0,0,0,0,0,0,0,0,0,0,0,0,0,0,0,0,0,0,0,0,0,0,0,0,0,0,0,0,0,0,0,0,0,0,0,0,0,0,0,0,0,0,0,0,0,0,0,0,0,0,0,0,0,0,0,0,0,0,0,0,0,0,0,0,0,0,0,0,0,0,0,0,0,0,0,0,0,0,0,0,0,0,0,0,0,0,0,0,0,0,0,0,0,0,0,0,0,0,0,0,0,0,0,0,0,0,0,0,0,0,0,0,0,0,0,0,0,0,0,0,0,0,0,0,0,0,0,0,0,0,0,0,0,0,0,0,0,0,0,0,0,0,0,0,0,0,0,0,0,0,0,0,0,0,0,0,0,0,0,0,0,0,0,0,0,0,0,0,0,0,0,0,0,0,0,0,0,0,0,0,0,0,0,0,0,0,0,0,0,0,0,0,0,0,0,0,0,0,0,0,0,0,0,0,0,0,0,0,0,0,0,0,0,0,0,0,0,0,0,0,0,0,0,0,0,0,0,0
,Vanderkloof,0,0,0,0,0,0,0,0,0,0,0,0,0,0,0,0,0,0,0,0,0,0,0,0,0,0,0,0,0,0,0,0,0,0,0,0,0,0,0,0,0,0,0,0,0,0,0,0,0,0,0,0,0,0,0,0,0,0,0,0,0,0,0,0,0,0,0,0,0,0,0,0,0,0,0,0,0,0,0,0,0,0,0,0,0,0,0,0,0,0,0,0,0,0,0,0,0,0,0,0,0,0,0,0,0,0,0,0,0,0,0,0,0,0,0,0,0,0,0,0,0,0,0,0,0,0,0,0,0,0,0,0,0,0,0,0,0,0,0,0,0,0,0,0,0,0,0,0,0,0,0,0,0,0,0,0,0,0,0,0,0,0,0,0,0,0,0,0,0,0,0,0,0,0,0,0,0,0,0,0,0,0,0,0,0,0,0,0,0,0,0,0,0,0,0,0,0,0,0,0,0,0,0,0,0,0,0,0,0,0,0,0,0,0,0,0,0,0,0,0,0,0,0,0,0,0,0,0,0,0,0,0,0,0,0,0,0,0,0,0,0,0,0,0,0,0,0,0,0,0,0,0,0,0,0,0,0,0,0,0,0,0,0,0,0,0,0,0,0,0,0,0,0,0,0,0,0,0,0,0,0,0,0,0,0,0,0,0,0,0,0,0,0,0,0,0,0,0,0,0,0,0,0,0,0,0,0,0,0,0,0,0,0,0,0,0,0,0,0,0,0,0,0,0,0,0,0,0,0,0,0,0,0,0,0,0,0,0,0,0,0,0,0,0,0,0,0,0,0,0,0,0,0,0,0,0,0,0,0,0,0,0,0,0,0
,Drakensberg,0,0,0,0,0,0,0,0,0,0,0,0,0,0,0,0,0,0,0,0,0,0,0,0,0,0,0,0,0,0,0,0,0,0,0,0,0,0,0,0,0,0,0,0,0,0,0,0,0,0,0,0,0,0,0,0,0,0,0,0,0,0,0,0,0,0,0,0,0,0,0,0,0,0,0,0,0,0,0,0,0,0,0,0,0,0,0,0,0,0,0,0,0,0,0,0,0,0,0,0,0,0,0,0,0,0,0,0,0,0,0,0,0,0,0,0,0,0,0,0,0,0,0,0,0,0,0,0,0,0,0,0,0,0,0,0,0,0,0,0,0,0,0,0,0,0,0,0,0,0,0,0,0,0,0,0,0,0,0,0,0,0,0,0,0,0,0,0,0,0,0,0,0,0,0,0,0,0,0,0,0,0,0,0,0,0,0,0,0,0,0,0,0,0,0,0,0,0,0,0,0,0,0,0,0,0,0,0,0,0,0,0,0,0,0,0,0,0,0,0,0,0,0,0,0,0,0,0,0,0,0,0,0,0,0,0,0,0,0,0,0,0,0,0,0,0,0,0,0,0,0,0,0,0,0,0,0,0,0,0,0,0,0,0,0,0,0,0,0,0,0,0,0,0,0,0,0,0,0,0,0,0,0,0,0,0,0,0,0,0,0,0,0,0,0,0,0,0,0,0,0,0,0,0,0,0,0,0,0,0,0,0,0,0,0,0,0,0,0,0,0,0,0,0,0,0,0,0,0,0,0,0,0,0,0,0,0,0,0,0,0,0,0,0,0,0,0,0,0,0,0,0,0,0,0,0,0,0,0,0,0,0,0,0,0
,Palmiet,0,0,0,0,0,0,0,0,0,0,0,0,0,0,0,0,0,0,0,0,0,0,0,0,0,0,0,0,0,0,0,0,0,0,0,0,0,0,0,0,0,0,0,0,0,0,0,0,0,0,0,0,0,0,0,0,0,0,0,0,0,0,0,0,0,0,0,0,0,0,0,0,0,0,0,0,0,0,0,0,0,0,0,0,0,0,0,0,0,0,0,0,0,0,0,0,0,0,0,0,0,0,0,0,0,0,0,0,0,0,0,0,0,0,0,0,0,0,0,0,0,0,0,0,0,0,0,0,0,0,0,0,0,0,0,0,0,0,0,0,0,0,0,0,0,0,0,0,0,0,0,0,0,0,0,0,0,0,0,0,0,0,0,0,0,0,0,0,0,0,0,0,0,0,0,0,0,0,0,0,0,0,0,0,0,0,0,0,0,0,0,0,0,0,0,0,0,0,0,0,0,0,0,0,0,0,0,0,0,0,0,0,0,0,0,0,0,0,0,0,0,0,0,0,0,0,0,0,0,0,0,0,0,0,0,0,0,0,0,0,0,0,0,0,0,0,0,0,0,0,0,0,0,0,0,0,0,0,0,0,0,0,0,0,0,0,0,0,0,0,0,0,0,0,0,0,0,0,0,0,0,0,0,0,0,0,0,0,0,0,0,0,0,0,0,0,0,0,0,0,0,0,0,0,0,0,0,0,0,0,0,0,0,0,0,0,0,0,0,0,0,0,0,0,0,0,0,0,0,0,0,0,0,0,0,0,0,0,0,0,0,0,0,0,0,0,0,0,0,0,0,0,0,0,0,0,0,0,0,0,0,0,0,0,0
,Ingula,0,0,0,0,0,0,0,0,0,0,0,0,0,0,0,0,0,0,0,0,0,0,0,0,0,0,0,0,0,0,0,0,0,0,0,0,0,0,0,0,0,0,0,0,0,0,0,0,0,0,0,0,0,0,0,0,0,0,0,0,0,0,0,0,0,0,0,0,0,0,0,0,0,0,0,0,0,0,0,0,0,0,0,0,0,0,0,0,0,0,0,0,0,0,0,0,0,0,0,0,0,0,0,0,0,0,0,0,0,0,0,0,0,0,0,0,0,0,0,0,0,0,0,0,0,0,0,0,0,0,0,0,0,0,0,0,0,0,0,0,0,0,0,0,0,0,0,0,0,0,0,0,0,0,0,0,0,0,0,0,0,0,0,0,0,0,0,0,0,0,0,0,0,0,0,0,0,0,0,0,0,0,0,0,0,0,0,0,0,0,0,0,0,0,0,0,0,0,0,0,0,0,0,0,0,0,0,0,0,0,0,0,0,0,0,0,0,0,0,0,0,0,0,0,0,0,0,0,0,0,0,0,0,0,0,0,0,0,0,0,0,0,0,0,0,0,0,0,0,0,0,0,0,0,0,0,0,0,0,0,0,0,0,0,0,0,0,0,0,0,0,0,0,0,0,0,0,0,0,0,0,0,0,0,0,0,0,0,0,0,0,0,0,0,0,0,0,0,0,0,0,0,0,0,0,0,0,0,0,0,0,0,0,0,0,0,0,0,0,0,0,0,0,0,0,0,0,0,0,0,0,0,0,0,0,0,0,0,0,0,0,0,0,0,0,0,0,0,0,0,0,0,0,0,0,0,0,0,0,0,0,0,0,0,0
,Drak_Pump,0,0,0,0,0,0,0,0,0,0,0,0,0,0,0,0,0,0,0,0,0,0,0,0,0,0,0,0,0,0,0,0,0,0,0,0,0,0,0,0,0,0,0,0,0,0,0,0,0,0,0,0,0,0,0,0,0,0,0,0,0,0,0,0,0,0,0,0,0,0,0,0,0,0,0,0,0,0,0,0,0,0,0,0,0,0,0,0,0,0,0,0,0,0,0,0,0,0,0,0,0,0,0,0,0,0,0,0,0,0,0,0,0,0,0,0,0,0,0,0,0,0,0,0,0,0,0,0,0,0,0,0,0,0,0,0,0,0,0,0,0,0,0,0,0,0,0,0,0,0,0,0,0,0,0,0,0,0,0,0,0,0,0,0,0,0,0,0,0,0,0,0,0,0,0,0,0,0,0,0,0,0,0,0,0,0,0,0,0,0,0,0,0,0,0,0,0,0,0,0,0,0,0,0,0,0,0,0,0,0,0,0,0,0,0,0,0,0,0,0,0,0,0,0,0,0,0,0,0,0,0,0,0,0,0,0,0,0,0,0,0,0,0,0,0,0,0,0,0,0,0,0,0,0,0,0,0,0,0,0,0,0,0,0,0,0,0,0,0,0,0,0,0,0,0,0,0,0,0,0,0,0,0,0,0,0,0,0,0,0,0,0,0,0,0,0,0,0,0,0,0,0,0,0,0,0,0,0,0,0,0,0,0,0,0,0,0,0,0,0,0,0,0,0,0,0,0,0,0,0,0,0,0,0,0,0,0,0,0,0,0,0,0,0,0,0,0,0,0,0,0,0,0,0,0,0,0,0,0,0,0,0,0,0,0
,Palm_Pump,0,0,0,0,0,0,0,0,0,0,0,0,0,0,0,0,0,0,0,0,0,0,0,0,0,0,0,0,0,0,0,0,0,0,0,0,0,0,0,0,0,0,0,0,0,0,0,0,0,0,0,0,0,0,0,0,0,0,0,0,0,0,0,0,0,0,0,0,0,0,0,0,0,0,0,0,0,0,0,0,0,0,0,0,0,0,0,0,0,0,0,0,0,0,0,0,0,0,0,0,0,0,0,0,0,0,0,0,0,0,0,0,0,0,0,0,0,0,0,0,0,0,0,0,0,0,0,0,0,0,0,0,0,0,0,0,0,0,0,0,0,0,0,0,0,0,0,0,0,0,0,0,0,0,0,0,0,0,0,0,0,0,0,0,0,0,0,0,0,0,0,0,0,0,0,0,0,0,0,0,0,0,0,0,0,0,0,0,0,0,0,0,0,0,0,0,0,0,0,0,0,0,0,0,0,0,0,0,0,0,0,0,0,0,0,0,0,0,0,0,0,0,0,0,0,0,0,0,0,0,0,0,0,0,0,0,0,0,0,0,0,0,0,0,0,0,0,0,0,0,0,0,0,0,0,0,0,0,0,0,0,0,0,0,0,0,0,0,0,0,0,0,0,0,0,0,0,0,0,0,0,0,0,0,0,0,0,0,0,0,0,0,0,0,0,0,0,0,0,0,0,0,0,0,0,0,0,0,0,0,0,0,0,0,0,0,0,0,0,0,0,0,0,0,0,0,0,0,0,0,0,0,0,0,0,0,0,0,0,0,0,0,0,0,0,0,0,0,0,0,0,0,0,0,0,0,0,0,0,0,0,0,0,0,0
,Ingula-Pump,0,0,0,0,0,0,0,0,0,0,0,0,0,0,0,0,0,0,0,0,0,0,0,0,0,0,0,0,0,0,0,0,0,0,0,0,0,0,0,0,0,0,0,0,0,0,0,0,0,0,0,0,0,0,0,0,0,0,0,0,0,0,0,0,0,0,0,0,0,0,0,0,0,0,0,0,0,0,0,0,0,0,0,0,0,0,0,0,0,0,0,0,0,0,0,0,0,0,0,0,0,0,0,0,0,0,0,0,0,0,0,0,0,0,0,0,0,0,0,0,0,0,0,0,0,0,0,0,0,0,0,0,0,0,0,0,0,0,0,0,0,0,0,0,0,0,0,0,0,0,0,0,0,0,0,0,0,0,0,0,0,0,0,0,0,0,0,0,0,0,0,0,0,0,0,0,0,0,0,0,0,0,0,0,0,0,0,0,0,0,0,0,0,0,0,0,0,0,0,0,0,0,0,0,0,0,0,0,0,0,0,0,0,0,0,0,0,0,0,0,0,0,0,0,0,0,0,0,0,0,0,0,0,0,0,0,0,0,0,0,0,0,0,0,0,0,0,0,0,0,0,0,0,0,0,0,0,0,0,0,0,0,0,0,0,0,0,0,0,0,0,0,0,0,0,0,0,0,0,0,0,0,0,0,0,0,0,0,0,0,0,0,0,0,0,0,0,0,0,0,0,0,0,0,0,0,0,0,0,0,0,0,0,0,0,0,0,0,0,0,0,0,0,0,0,0,0,0,0,0,0,0,0,0,0,0,0,0,0,0,0,0,0,0,0,0,0,0,0,0,0,0,0,0,0,0,0,0,0,0,0,0,0,0,0
